<?xml version="1.0" encoding="utf-8"?>
<!-- Generator: Adobe Illustrator 21.0.0, SVG Export Plug-In . SVG Version: 6.00 Build 0)  -->
<!DOCTYPE svg PUBLIC "-//W3C//DTD SVG 1.1//EN" "http://www.w3.org/Graphics/SVG/1.1/DTD/svg11.dtd" [
	<!ENTITY ns_extend "http://ns.adobe.com/Extensibility/1.0/">
	<!ENTITY ns_ai "http://ns.adobe.com/AdobeIllustrator/10.0/">
	<!ENTITY ns_graphs "http://ns.adobe.com/Graphs/1.0/">
	<!ENTITY ns_vars "http://ns.adobe.com/Variables/1.0/">
	<!ENTITY ns_imrep "http://ns.adobe.com/ImageReplacement/1.0/">
	<!ENTITY ns_sfw "http://ns.adobe.com/SaveForWeb/1.0/">
	<!ENTITY ns_custom "http://ns.adobe.com/GenericCustomNamespace/1.0/">
	<!ENTITY ns_adobe_xpath "http://ns.adobe.com/XPath/1.0/">
	<!ENTITY st0 "fill:none;stroke:#244E9B;stroke-width:1.5;stroke-linecap:round;stroke-miterlimit:10;">
	<!ENTITY st1 "fill:none;stroke:#FFFFFF;stroke-width:1.5;stroke-linecap:round;stroke-miterlimit:10;">
]>
<svg version="1.1" id="Vrstva_1" xmlns:x="&ns_extend;" xmlns:i="&ns_ai;" xmlns:graph="&ns_graphs;"
	 xmlns="http://www.w3.org/2000/svg" xmlns:xlink="http://www.w3.org/1999/xlink" x="0px" y="0px" width="50px" height="100px"
	 viewBox="0 0 50 100" style="enable-background:new 0 0 50 100;" xml:space="preserve">
<metadata>
	<sfw  xmlns="&ns_sfw;">
		<slices></slices>
		<sliceSourceBounds  bottomLeftOrigin="true" height="97.5" width="47.5" x="1.25" y="-98.75"></sliceSourceBounds>
	</sfw>
</metadata>
<g>
	<g>
		<circle style="&st0;" cx="7.705" cy="7.705" r="5.705"/>
		<circle style="&st0;" cx="25" cy="7.705" r="5.705"/>
		<circle style="&st0;" cx="42.295" cy="7.705" r="5.705"/>
	</g>
	<g>
		<circle style="&st0;" cx="7.705" cy="25" r="5.705"/>
		<circle style="&st0;" cx="25" cy="25" r="5.705"/>
		<circle style="&st0;" cx="42.295" cy="25" r="5.705"/>
	</g>
	<g>
		<circle style="&st0;" cx="7.705" cy="42.295" r="5.705"/>
		<circle style="&st0;" cx="25" cy="42.295" r="5.705"/>
		<circle style="&st0;" cx="42.295" cy="42.295" r="5.705"/>
	</g>
</g>
<g>
	<g>
		<circle style="&st1;" cx="7.705" cy="57.705" r="5.705"/>
		<circle style="&st1;" cx="25" cy="57.705" r="5.705"/>
		<circle style="&st1;" cx="42.295" cy="57.705" r="5.705"/>
	</g>
	<g>
		<circle style="&st1;" cx="7.705" cy="75" r="5.705"/>
		<circle style="&st1;" cx="25" cy="75" r="5.705"/>
		<circle style="&st1;" cx="42.295" cy="75" r="5.705"/>
	</g>
	<g>
		<circle style="&st1;" cx="7.705" cy="92.295" r="5.705"/>
		<circle style="&st1;" cx="25" cy="92.295" r="5.705"/>
		<circle style="&st1;" cx="42.295" cy="92.295" r="5.705"/>
	</g>
</g>
</svg>
