<?xml version="1.0" encoding="utf-8"?>
<!-- Generator: Adobe Illustrator 21.0.0, SVG Export Plug-In . SVG Version: 6.00 Build 0)  -->
<!DOCTYPE svg PUBLIC "-//W3C//DTD SVG 1.1//EN" "http://www.w3.org/Graphics/SVG/1.1/DTD/svg11.dtd" [
	<!ENTITY ns_extend "http://ns.adobe.com/Extensibility/1.0/">
	<!ENTITY ns_ai "http://ns.adobe.com/AdobeIllustrator/10.0/">
	<!ENTITY ns_graphs "http://ns.adobe.com/Graphs/1.0/">
	<!ENTITY ns_vars "http://ns.adobe.com/Variables/1.0/">
	<!ENTITY ns_imrep "http://ns.adobe.com/ImageReplacement/1.0/">
	<!ENTITY ns_sfw "http://ns.adobe.com/SaveForWeb/1.0/">
	<!ENTITY ns_custom "http://ns.adobe.com/GenericCustomNamespace/1.0/">
	<!ENTITY ns_adobe_xpath "http://ns.adobe.com/XPath/1.0/">
	<!ENTITY st0 "fill:none;stroke:#B4B4B3;stroke-width:2;stroke-linecap:round;stroke-linejoin:round;stroke-miterlimit:10;">
	<!ENTITY st1 "fill:none;stroke:#000000;stroke-width:2;stroke-linecap:round;stroke-linejoin:round;stroke-miterlimit:10;">
]>
<svg version="1.1" id="Vrstva_1" xmlns:x="&ns_extend;" xmlns:i="&ns_ai;" xmlns:graph="&ns_graphs;"
	 xmlns="http://www.w3.org/2000/svg" xmlns:xlink="http://www.w3.org/1999/xlink" x="0px" y="0px" width="65px" height="118px"
	 viewBox="0 0 65 118" style="enable-background:new 0 0 65 118;" xml:space="preserve">
<metadata>
	<sfw  xmlns="&ns_sfw;">
		<slices></slices>
		<sliceSourceBounds  bottomLeftOrigin="true" height="102.472" width="50.017" x="7.487" y="8.387"></sliceSourceBounds>
	</sfw>
</metadata>
<g>
	<path style="&st0;" d="M8.487,46.608c0,0,4.19-1.951,5.309-2.497c1.119-0.545,2.606-0.833,4.241-0.173
		c1.636,0.66,12.704,4.529,14.713,5.189c2.009,0.66,2.668,0.723,4.088-0.281c1.787-1.264,16.591-12.144,18.284-13.493
		s1.57-2.176,0.996-3.066c-0.574-0.89-1.661-1.261-2.981-0.314c-1.32,0.947-12.497,8.193-13.989,9.254s-3.214,0.961-4.319-0.158
		c-1.697-1.719-2.898-3.042-2.898-3.042"/>
	<path style="&st0;" d="M9.592,35.101c0,0,9.14-3.248,10.287-3.683c1.148-0.435,3.286-0.435,4.692-0.134
		c1.324,0.284,13.425,1.802,16.138,2.205c0.168,0.025,0.3,0.046,0.391,0.062c1.564,0.273,2.525,1.062,2.41,2.482
		c-0.115,1.42-1.334,2.009-2.855,1.994c-1.521-0.014-14.52-0.072-14.52-0.072"/>
	<path style="&st0;" d="M42.049,33.79c0,0,2.709-1.807,3.885-2.44c2.316-1.248,4.587-2.403,6.117,1.361"/>
	<path style="&st0;" d="M38.618,19.031c0,3.225-2.614,6.299-5.84,6.299s-5.84-3.074-5.84-6.299s5.84-10.89,5.84-10.89
		S38.618,15.806,38.618,19.031z"/>
</g>
<g>
	<path style="&st1;" d="M8.487,105.608c0,0,4.19-1.951,5.309-2.497s2.606-0.833,4.241-0.173c1.636,0.66,12.704,4.529,14.713,5.189
		c2.009,0.66,2.668,0.723,4.088-0.281c1.787-1.264,16.591-12.144,18.284-13.493c1.693-1.349,1.57-2.176,0.996-3.066
		c-0.574-0.89-1.661-1.261-2.981-0.314c-1.32,0.947-12.497,8.193-13.989,9.254c-1.492,1.062-3.214,0.961-4.319-0.158
		c-1.697-1.719-2.898-3.042-2.898-3.042"/>
	<path style="&st1;" d="M9.592,94.101c0,0,9.14-3.248,10.287-3.683c1.148-0.435,3.286-0.435,4.692-0.134
		c1.324,0.284,13.425,1.802,16.138,2.205c0.168,0.025,0.3,0.046,0.391,0.062c1.564,0.273,2.525,1.062,2.41,2.482
		c-0.115,1.42-1.334,2.009-2.855,1.994c-1.521-0.014-14.52-0.072-14.52-0.072"/>
	<path style="&st1;" d="M42.049,92.79c0,0,2.709-1.807,3.885-2.44c2.316-1.248,4.587-2.403,6.117,1.361"/>
	<path style="&st1;" d="M38.618,78.031c0,3.225-2.614,6.299-5.84,6.299s-5.84-3.074-5.84-6.299c0-3.225,5.84-10.89,5.84-10.89
		S38.618,74.806,38.618,78.031z"/>
</g>
</svg>
