<?xml version="1.0" encoding="utf-8"?>
<!-- Generator: Adobe Illustrator 21.0.0, SVG Export Plug-In . SVG Version: 6.00 Build 0)  -->
<!DOCTYPE svg PUBLIC "-//W3C//DTD SVG 1.1//EN" "http://www.w3.org/Graphics/SVG/1.1/DTD/svg11.dtd" [
	<!ENTITY ns_extend "http://ns.adobe.com/Extensibility/1.0/">
	<!ENTITY ns_ai "http://ns.adobe.com/AdobeIllustrator/10.0/">
	<!ENTITY ns_graphs "http://ns.adobe.com/Graphs/1.0/">
	<!ENTITY ns_vars "http://ns.adobe.com/Variables/1.0/">
	<!ENTITY ns_imrep "http://ns.adobe.com/ImageReplacement/1.0/">
	<!ENTITY ns_sfw "http://ns.adobe.com/SaveForWeb/1.0/">
	<!ENTITY ns_custom "http://ns.adobe.com/GenericCustomNamespace/1.0/">
	<!ENTITY ns_adobe_xpath "http://ns.adobe.com/XPath/1.0/">
	<!ENTITY st0 "fill:none;stroke:#B4B4B3;stroke-width:2;stroke-linecap:round;stroke-linejoin:round;stroke-miterlimit:10;">
	<!ENTITY st1 "fill:none;stroke:#000000;stroke-width:2;stroke-linecap:round;stroke-linejoin:round;stroke-miterlimit:10;">
]>
<svg version="1.1" id="Vrstva_1" xmlns:x="&ns_extend;" xmlns:i="&ns_ai;" xmlns:graph="&ns_graphs;"
	 xmlns="http://www.w3.org/2000/svg" xmlns:xlink="http://www.w3.org/1999/xlink" x="0px" y="0px" width="65px" height="118px"
	 viewBox="0 0 65 118" style="enable-background:new 0 0 65 118;" xml:space="preserve">
<metadata>
	<sfw  xmlns="&ns_sfw;">
		<slices></slices>
		<sliceSourceBounds  bottomLeftOrigin="true" height="104.099" width="44.797" x="8.366" y="6.95"></sliceSourceBounds>
	</sfw>
</metadata>
<g>
	<path style="&st0;" d="M42.936,25.182H21.852c-1.118,0-2.032-0.914-2.032-2.032V9.983c0-1.118,0.914-2.032,2.032-2.032h21.084
		c1.118,0,2.032,0.914,2.032,2.032V23.15C44.968,24.268,44.054,25.182,42.936,25.182z"/>
	<line style="&st0;" x1="19.82" y1="11.55" x2="44.968" y2="11.55"/>
	<line style="&st0;" x1="19.82" y1="15.106" x2="44.968" y2="15.106"/>
	<path style="&st0;" d="M13.961,41.892c0-5.752,4.663-10.415,10.415-10.415c1.663,0,3.234,0.39,4.629,1.083"/>
	<path style="&st0;" d="M29.005,32.54h10.158c1.411,0,2.566,1.155,2.566,2.566v0c0,1.411-1.155,2.566-2.566,2.566h-7.671"/>
	<path style="&st0;" d="M41.753,35.162l5.791-6.896c0.927-1.102,2.588-1.245,3.69-0.318l0,0c1.102,0.927,1.245,2.588,0.318,3.69
		l-7.24,8.806"/>
	<path style="&st0;" d="M23.397,45.186c0,0,1.916-2.307,3.535-2.307c1.619,0,11.182,0,12.426,0c2.394,0,3.847-1.092,4.953-2.434"/>
	<line style="&st0;" x1="23.397" y1="45.186" x2="17.618" y2="51.05"/>
	<line style="&st0;" x1="13.961" y1="39.68" x2="9.366" y2="44.343"/>
</g>
<g>
	<path style="&st1;" d="M42.936,84.182H21.852c-1.118,0-2.032-0.914-2.032-2.032V68.983c0-1.118,0.914-2.032,2.032-2.032h21.084
		c1.118,0,2.032,0.914,2.032,2.032V82.15C44.968,83.268,44.054,84.182,42.936,84.182z"/>
	<line style="&st1;" x1="19.82" y1="70.55" x2="44.968" y2="70.55"/>
	<line style="&st1;" x1="19.82" y1="74.106" x2="44.968" y2="74.106"/>
	<path style="&st1;" d="M13.961,100.892c0-5.752,4.663-10.415,10.415-10.415c1.663,0,3.234,0.39,4.629,1.083"/>
	<path style="&st1;" d="M29.005,91.54h10.158c1.411,0,2.566,1.155,2.566,2.566l0,0c0,1.411-1.155,2.566-2.566,2.566h-7.671"/>
	<path style="&st1;" d="M41.753,94.162l5.791-6.896c0.927-1.102,2.588-1.245,3.69-0.318h0c1.102,0.927,1.245,2.588,0.318,3.69
		l-7.24,8.806"/>
	<path style="&st1;" d="M23.397,104.186c0,0,1.916-2.307,3.535-2.307c1.619,0,11.182,0,12.426,0c2.394,0,3.847-1.092,4.953-2.434"/>
	<line style="&st1;" x1="23.397" y1="104.186" x2="17.618" y2="110.05"/>
	<line style="&st1;" x1="13.961" y1="98.68" x2="9.366" y2="103.343"/>
</g>
</svg>
