<?xml version="1.0" encoding="utf-8"?>
<!-- Generator: Adobe Illustrator 21.0.0, SVG Export Plug-In . SVG Version: 6.00 Build 0)  -->
<!DOCTYPE svg PUBLIC "-//W3C//DTD SVG 1.1//EN" "http://www.w3.org/Graphics/SVG/1.1/DTD/svg11.dtd" [
	<!ENTITY ns_extend "http://ns.adobe.com/Extensibility/1.0/">
	<!ENTITY ns_ai "http://ns.adobe.com/AdobeIllustrator/10.0/">
	<!ENTITY ns_graphs "http://ns.adobe.com/Graphs/1.0/">
	<!ENTITY ns_vars "http://ns.adobe.com/Variables/1.0/">
	<!ENTITY ns_imrep "http://ns.adobe.com/ImageReplacement/1.0/">
	<!ENTITY ns_sfw "http://ns.adobe.com/SaveForWeb/1.0/">
	<!ENTITY ns_custom "http://ns.adobe.com/GenericCustomNamespace/1.0/">
	<!ENTITY ns_adobe_xpath "http://ns.adobe.com/XPath/1.0/">
	<!ENTITY st0 "fill:#FFFFFF;">
]>
<svg version="1.1" id="Vrstva_1" xmlns:x="&ns_extend;" xmlns:i="&ns_ai;" xmlns:graph="&ns_graphs;"
	 xmlns="http://www.w3.org/2000/svg" xmlns:xlink="http://www.w3.org/1999/xlink" x="0px" y="0px" width="34px" height="22px"
	 viewBox="0 0 34 22" style="enable-background:new 0 0 34 22;" xml:space="preserve">
<metadata>
	<sfw  xmlns="&ns_sfw;">
		<slices></slices>
		<sliceSourceBounds  bottomLeftOrigin="true" height="20" width="32" x="1" y="-21"></sliceSourceBounds>
	</sfw>
</metadata>
<g>
	<path style="&st0;" d="M28.899,5C28.434,2.721,26.414,1,24,1s-4.434,1.721-4.899,4H1v2h18.101c0.465,2.279,2.484,4,4.899,4
		s4.434-1.721,4.899-4H33V5H28.899z M24,9c-1.654,0-3-1.346-3-3s1.346-3,3-3s3,1.346,3,3S25.654,9,24,9z"/>
	<path style="&st0;" d="M14,11c-2.414,0-4.434,1.721-4.899,4H1v2h8.101c0.465,2.279,2.484,4,4.899,4s4.434-1.721,4.899-4H33v-2
		H18.899C18.434,12.721,16.414,11,14,11z M14,19c-1.654,0-3-1.346-3-3s1.346-3,3-3s3,1.346,3,3S15.654,19,14,19z"/>
</g>
</svg>
