<?xml version="1.0" encoding="utf-8"?>
<!-- Generator: Adobe Illustrator 21.0.0, SVG Export Plug-In . SVG Version: 6.00 Build 0)  -->
<!DOCTYPE svg PUBLIC "-//W3C//DTD SVG 1.1//EN" "http://www.w3.org/Graphics/SVG/1.1/DTD/svg11.dtd" [
	<!ENTITY ns_extend "http://ns.adobe.com/Extensibility/1.0/">
	<!ENTITY ns_ai "http://ns.adobe.com/AdobeIllustrator/10.0/">
	<!ENTITY ns_graphs "http://ns.adobe.com/Graphs/1.0/">
	<!ENTITY ns_vars "http://ns.adobe.com/Variables/1.0/">
	<!ENTITY ns_imrep "http://ns.adobe.com/ImageReplacement/1.0/">
	<!ENTITY ns_sfw "http://ns.adobe.com/SaveForWeb/1.0/">
	<!ENTITY ns_custom "http://ns.adobe.com/GenericCustomNamespace/1.0/">
	<!ENTITY ns_adobe_xpath "http://ns.adobe.com/XPath/1.0/">
	<!ENTITY st0 "fill:#E5F05B;">
	<!ENTITY st1 "enable-background:new    ;">
]>
<svg version="1.1" id="Vrstva_1" xmlns:x="&ns_extend;" xmlns:i="&ns_ai;" xmlns:graph="&ns_graphs;"
	 xmlns="http://www.w3.org/2000/svg" xmlns:xlink="http://www.w3.org/1999/xlink" x="0px" y="0px" width="82px" height="82px"
	 viewBox="0 0 82 82" style="enable-background:new 0 0 82 82;" xml:space="preserve">
<metadata>
	<sfw  xmlns="&ns_sfw;">
		<slices></slices>
		<sliceSourceBounds  bottomLeftOrigin="true" height="80" width="80" x="1" y="1"></sliceSourceBounds>
	</sfw>
</metadata>
<circle style="&st0;" cx="41" cy="41" r="40"/>
<g style="&st1;">
	<path d="M35.776,37.16v-0.7h3.425v0.601c0.033,1.033,0.179,1.791,0.438,2.274s0.738,0.726,1.438,0.726
		c0.716,0,1.2-0.254,1.45-0.763s0.375-1.313,0.375-2.413c0-1.1-0.176-1.933-0.525-2.5c-0.35-0.566-0.967-0.875-1.85-0.925h-0.575
		v-2.774h0.525c0.9-0.017,1.529-0.259,1.888-0.726c0.358-0.466,0.538-1.233,0.538-2.3c0-0.916-0.138-1.6-0.413-2.05
		c-0.274-0.45-0.763-0.675-1.462-0.675c-0.684,0-1.15,0.241-1.4,0.725s-0.392,1.2-0.425,2.15v0.725h-3.425v-0.95
		c0-1.733,0.454-3.07,1.362-4.013c0.908-0.941,2.204-1.412,3.888-1.412c1.716,0,3.028,0.463,3.938,1.388
		c0.908,0.925,1.362,2.246,1.362,3.962c0,1.184-0.246,2.163-0.737,2.938c-0.492,0.775-1.138,1.279-1.938,1.513
		c0.833,0.284,1.487,0.821,1.962,1.612c0.476,0.792,0.713,1.871,0.713,3.238c0,1.934-0.421,3.441-1.263,4.524
		c-0.842,1.084-2.18,1.625-4.013,1.625C37.534,42.96,35.776,41.027,35.776,37.16z"/>
</g>
<g>
	<path d="M27.092,46.607h1.582v10.206h2.897v1.134h-4.479V46.607z"/>
	<path d="M32.649,46.607h4.396v1.176h-2.813v3.752h2.282v1.12h-2.282v4.158h2.842v1.134H32.65L32.649,46.607L32.649,46.607z"/>
	<path d="M37.787,46.607h1.484l1.792,8.357l1.708-8.357h1.442l-2.506,11.34H40.32L37.787,46.607z"/>
	<path d="M45.417,46.607h4.396v1.176h-2.814v3.752h2.282v1.12h-2.282v4.158h2.842v1.134h-4.424V46.607z"/>
	<path d="M51.115,46.607h1.582v10.206h2.898v1.134h-4.48V46.607z"/>
</g>
</svg>
