<?xml version="1.0" encoding="utf-8"?>
<!-- Generator: Adobe Illustrator 21.0.0, SVG Export Plug-In . SVG Version: 6.00 Build 0)  -->
<!DOCTYPE svg PUBLIC "-//W3C//DTD SVG 1.1//EN" "http://www.w3.org/Graphics/SVG/1.1/DTD/svg11.dtd" [
	<!ENTITY ns_extend "http://ns.adobe.com/Extensibility/1.0/">
	<!ENTITY ns_ai "http://ns.adobe.com/AdobeIllustrator/10.0/">
	<!ENTITY ns_graphs "http://ns.adobe.com/Graphs/1.0/">
	<!ENTITY ns_vars "http://ns.adobe.com/Variables/1.0/">
	<!ENTITY ns_imrep "http://ns.adobe.com/ImageReplacement/1.0/">
	<!ENTITY ns_sfw "http://ns.adobe.com/SaveForWeb/1.0/">
	<!ENTITY ns_custom "http://ns.adobe.com/GenericCustomNamespace/1.0/">
	<!ENTITY ns_adobe_xpath "http://ns.adobe.com/XPath/1.0/">
	<!ENTITY st0 "fill:#F1F1F1;">
	<!ENTITY st1 "enable-background:new    ;">
	<!ENTITY st2 "fill:#D9D7D7;">
]>
<svg version="1.1" id="Vrstva_1" xmlns:x="&ns_extend;" xmlns:i="&ns_ai;" xmlns:graph="&ns_graphs;"
	 xmlns="http://www.w3.org/2000/svg" xmlns:xlink="http://www.w3.org/1999/xlink" x="0px" y="0px" width="82px" height="82px"
	 viewBox="0 0 82 82" style="enable-background:new 0 0 82 82;" xml:space="preserve">
<metadata>
	<sfw  xmlns="&ns_sfw;">
		<slices></slices>
		<sliceSourceBounds  bottomLeftOrigin="true" height="80" width="80" x="1" y="1"></sliceSourceBounds>
	</sfw>
</metadata>
<g>
	<circle style="&st0;" cx="41" cy="41" r="40"/>
</g>
<g style="&st1;">
	<path style="&st2;" d="M35.775,44.775v-0.701H39.2v0.602c0.033,1.033,0.179,1.791,0.438,2.273c0.258,0.484,0.738,0.727,1.438,0.727
		c0.717,0,1.2-0.254,1.45-0.764C42.775,46.404,42.9,45.6,42.9,44.5s-0.175-1.934-0.524-2.5c-0.351-0.566-0.967-0.875-1.851-0.925
		H39.95V38.3h0.525c0.901-0.017,1.53-0.259,1.888-0.726c0.358-0.466,0.537-1.233,0.537-2.3c0-0.916-0.138-1.6-0.412-2.05
		c-0.275-0.45-0.763-0.675-1.463-0.675c-0.684,0-1.15,0.241-1.4,0.725s-0.392,1.2-0.425,2.15v0.725h-3.425V35.2
		c0-1.733,0.454-3.07,1.362-4.013c0.908-0.941,2.204-1.412,3.888-1.412c1.717,0,3.029,0.463,3.938,1.388s1.362,2.246,1.362,3.962
		c0,1.184-0.246,2.163-0.737,2.938c-0.491,0.775-1.138,1.279-1.938,1.513c0.833,0.284,1.487,0.821,1.963,1.612
		c0.475,0.792,0.712,1.872,0.712,3.239c0,1.934-0.421,3.441-1.262,4.523c-0.842,1.084-2.18,1.625-4.013,1.625
		C37.534,50.574,35.775,48.643,35.775,44.775z"/>
</g>
</svg>
