<?xml version="1.0" encoding="utf-8"?>
<!-- Generator: Adobe Illustrator 21.0.0, SVG Export Plug-In . SVG Version: 6.00 Build 0)  -->
<!DOCTYPE svg PUBLIC "-//W3C//DTD SVG 1.1//EN" "http://www.w3.org/Graphics/SVG/1.1/DTD/svg11.dtd" [
	<!ENTITY ns_extend "http://ns.adobe.com/Extensibility/1.0/">
	<!ENTITY ns_ai "http://ns.adobe.com/AdobeIllustrator/10.0/">
	<!ENTITY ns_graphs "http://ns.adobe.com/Graphs/1.0/">
	<!ENTITY ns_vars "http://ns.adobe.com/Variables/1.0/">
	<!ENTITY ns_imrep "http://ns.adobe.com/ImageReplacement/1.0/">
	<!ENTITY ns_sfw "http://ns.adobe.com/SaveForWeb/1.0/">
	<!ENTITY ns_custom "http://ns.adobe.com/GenericCustomNamespace/1.0/">
	<!ENTITY ns_adobe_xpath "http://ns.adobe.com/XPath/1.0/">
	<!ENTITY st0 "fill:#FFFFFF;">
]>
<svg version="1.1" id="Vrstva_1" xmlns:x="&ns_extend;" xmlns:i="&ns_ai;" xmlns:graph="&ns_graphs;"
	 xmlns="http://www.w3.org/2000/svg" xmlns:xlink="http://www.w3.org/1999/xlink" x="0px" y="0px" width="361px" height="187px"
	 viewBox="0 0 361 187" style="enable-background:new 0 0 361 187;" xml:space="preserve">
<metadata>
	<sfw  xmlns="&ns_sfw;">
		<slices></slices>
		<sliceSourceBounds  bottomLeftOrigin="true" height="184.734" width="359" x="1" y="-185.734"></sliceSourceBounds>
	</sfw>
</metadata>
<g>
	<path style="&st0;" d="M67.945,170.955c0.852-0.177,2.408-0.331,3.938-0.331c1.972,0,3.219,0.265,4.203,0.946
		c0.921,0.549,1.536,1.509,1.536,2.777c0,1.362-0.855,2.587-2.455,3.174v0.069c1.558,0.392,2.979,1.616,2.979,3.635
		c0,1.31-0.568,2.341-1.401,3.045c-1.054,0.916-2.78,1.382-5.497,1.382c-1.489,0-2.606-0.113-3.304-0.204V170.955z M70.615,176.782
		h1.379c1.881,0,2.912-0.877,2.912-2.126c0-1.401-1.051-2.035-2.758-2.035c-0.789,0-1.249,0.041-1.533,0.108V176.782z
		 M70.615,183.547c0.35,0.063,0.808,0.063,1.423,0.063c1.729,0,3.282-0.632,3.282-2.477c0-1.704-1.509-2.402-3.37-2.402h-1.335
		V183.547z"/>
	<path style="&st0;" d="M88.217,170.954c1.031-0.193,2.521-0.328,4.073-0.328c2.124,0,3.549,0.35,4.553,1.183
		c0.814,0.678,1.271,1.71,1.271,2.976c0,1.911-1.291,3.199-2.692,3.682v0.066c1.07,0.394,1.707,1.42,2.057,2.843
		c0.483,1.84,0.874,3.549,1.161,4.118h-2.761c-0.218-0.439-0.59-1.641-0.982-3.481c-0.441-1.925-1.12-2.54-2.65-2.584h-1.36v6.065
		h-2.672V170.954z M90.89,177.46h1.6c1.815,0,2.934-0.963,2.934-2.43c0-1.6-1.12-2.366-2.871-2.366c-0.852,0-1.401,0.066-1.663,0.13
		V177.46z"/>
	<path style="&st0;" d="M110.924,170.737v8.605c0,2.89,1.205,4.225,3.023,4.225c1.947,0,3.108-1.335,3.108-4.225v-8.605h2.694v8.431
		c0,4.551-2.344,6.567-5.891,6.567c-3.414,0-5.626-1.903-5.626-6.545v-8.453H110.924z"/>
	<path style="&st0;" d="M142.961,179.472c-0.088-1.906-0.199-4.178-0.177-6.197h-0.066c-0.483,1.798-1.092,3.789-1.751,5.651
		l-2.168,6.393h-2.057l-1.969-6.305c-0.574-1.886-1.098-3.9-1.492-5.739h-0.041c-0.066,1.925-0.154,4.275-0.265,6.285l-0.328,5.932
		h-2.518l0.985-14.755h3.549l1.925,5.932c0.527,1.729,0.987,3.481,1.36,5.121h0.063c0.394-1.594,0.899-3.414,1.467-5.146
		l2.038-5.907h3.503l0.855,14.755h-2.631L142.961,179.472z"/>
	<polygon style="&st0;" points="156.273,170.737 158.967,170.737 158.967,183.238 165.032,183.238 165.032,185.494 156.273,185.494 
			"/>
	<path style="&st0;" d="M179.922,185.734c-4.184,0-6.809-3.199-6.809-7.51c0-4.512,2.865-7.73,7.03-7.73
		c4.291,0,6.831,3.265,6.831,7.471c0,4.945-3.001,7.769-7.03,7.769H179.922z M180.054,183.566c2.606,0,4.071-2.408,4.071-5.494
		c0-2.777-1.379-5.408-4.071-5.408c-2.695,0-4.096,2.559-4.096,5.494c0,2.937,1.489,5.408,4.073,5.408H180.054z"/>
	<path style="&st0;" d="M200.332,185.494l-4.777-14.758h2.937l2.016,6.724c0.568,1.859,1.067,3.594,1.442,5.364h0.041
		c0.397-1.754,0.943-3.547,1.514-5.345l2.146-6.743h2.868l-5.105,14.758H200.332z"/>
	<path style="&st0;" d="M217.781,170.737h2.67v6.785h0.069c0.35-0.568,0.723-1.092,1.07-1.6l3.878-5.185h3.307l-5.08,6.285
		l5.408,8.472h-3.155l-4.159-6.762l-1.338,1.575v5.188h-2.67V170.737z"/>
	<path style="&st0;" d="M241.407,181.31l-1.269,4.184h-2.78l4.73-14.758h3.439l4.793,14.758h-2.893l-1.332-4.184H241.407z
		 M245.632,179.278l-1.161-3.638c-0.281-0.896-0.521-1.903-0.742-2.755h-0.044c-0.221,0.852-0.439,1.881-0.701,2.755l-1.139,3.638
		H245.632z"/>
	<path style="&st0;" d="M89.163,24.608c3.889,0,7.51,0.723,10.858,2.176c3.348,1.448,6.285,3.434,8.809,5.952
		c2.521,2.521,4.506,5.458,5.949,8.806c1.451,3.351,2.176,6.969,2.176,10.858v27.913H89.163c-3.806,0-7.402-0.725-10.792-2.171
		c-3.392-1.448-6.365-3.456-8.93-6.021c-2.565-2.559-4.573-5.541-6.021-8.933c-1.445-3.389-2.168-6.986-2.168-10.789
		c0-3.889,0.723-7.507,2.168-10.858c1.448-3.348,3.456-6.285,6.021-8.806c2.565-2.518,5.538-4.504,8.93-5.952
		C81.76,25.331,85.357,24.608,89.163,24.608 M105.92,69.276V52.4c0-2.317-0.439-4.487-1.305-6.52
		c-0.871-2.022-2.068-3.803-3.599-5.331c-1.531-1.531-3.31-2.733-5.337-3.602c-2.024-0.866-4.2-1.299-6.517-1.299
		c-2.314,0-4.506,0.433-6.575,1.299c-2.068,0.869-3.869,2.071-5.397,3.602c-1.533,1.528-2.73,3.31-3.602,5.331
		c-0.866,2.033-1.299,4.203-1.299,6.52c0,2.314,0.433,4.506,1.299,6.578c0.872,2.066,2.068,3.864,3.602,5.395
		c1.528,1.533,3.329,2.728,5.397,3.599c2.068,0.869,4.261,1.305,6.575,1.305H105.92z"/>
	<path style="&st0;" d="M163.104,24.608c3.894,0,7.51,0.723,10.861,2.176c3.354,1.448,6.288,3.434,8.809,5.952
		c2.524,2.521,4.509,5.458,5.957,8.806c1.442,3.351,2.171,6.969,2.171,10.858v27.913h-27.797c-3.8,0-7.397-0.725-10.786-2.171
		c-3.392-1.448-6.371-3.456-8.933-6.021c-2.568-2.559-4.573-5.541-6.021-8.933c-1.445-3.389-2.171-6.986-2.171-10.789
		c0-3.889,0.725-7.507,2.171-10.858c1.448-3.348,3.453-6.285,6.021-8.806c2.562-2.518,5.541-4.504,8.933-5.952
		C155.707,25.331,159.303,24.608,163.104,24.608 M179.864,69.276V52.4c0-2.317-0.433-4.487-1.302-6.52
		c-0.869-2.022-2.071-3.803-3.596-5.331c-1.536-1.531-3.31-2.733-5.342-3.602c-2.027-0.866-4.198-1.299-6.52-1.299
		c-2.311,0-4.504,0.433-6.572,1.299c-2.068,0.869-3.869,2.071-5.397,3.602c-1.533,1.528-2.728,3.31-3.599,5.331
		c-0.866,2.033-1.305,4.203-1.305,6.52c0,2.314,0.438,4.506,1.305,6.578c0.871,2.066,2.066,3.864,3.599,5.395
		c1.528,1.533,3.329,2.728,5.397,3.599c2.068,0.869,4.261,1.305,6.572,1.305H179.864z"/>
	<path style="&st0;" d="M196.669,41.546c1.442-3.351,3.428-6.285,5.943-8.809c2.518-2.524,5.469-4.506,8.856-5.957
		c3.381-1.445,6.975-2.168,10.77-2.168c3.88,0,7.493,0.723,10.839,2.168c3.343,1.451,6.291,3.434,8.853,5.957
		c2.554,2.523,4.559,5.458,6.004,8.809c1.445,3.351,2.168,6.964,2.168,10.85l0.017,27.916h-11.106l0.055-27.916
		c0-2.317-0.441-4.484-1.305-6.517c-0.863-2.024-2.063-3.803-3.585-5.334c-1.525-1.531-3.323-2.733-5.383-3.599
		c-2.057-0.866-4.247-1.296-6.556-1.296c-2.308,0-4.471,0.43-6.489,1.296c-2.027,0.866-3.795,2.068-5.32,3.599
		c-1.528,1.531-2.722,3.31-3.591,5.334c-0.866,2.033-1.302,4.2-1.302,6.517v27.916h-11.032V52.396
		C194.504,48.51,195.227,44.897,196.669,41.546"/>
	<path style="&st0;" d="M261.784,32.817c2.728-2.728,5.805-4.774,9.234-6.136c3.434-1.365,6.925-2.044,10.483-2.044
		c3.552,0,7.047,0.678,10.477,2.044c3.428,1.362,6.506,3.409,9.236,6.136l3.845,3.839l-7.692,7.819l-3.963-3.85
		c-1.655-1.652-3.516-2.888-5.585-3.715c-2.063-0.827-4.167-1.244-6.318-1.244s-4.258,0.416-6.327,1.244
		c-2.066,0.827-3.927,2.063-5.579,3.715c-1.655,1.572-2.896,3.392-3.718,5.463c-0.825,2.063-1.241,4.17-1.241,6.318
		c0,2.154,0.416,4.258,1.241,6.324c0.822,2.068,2.063,3.927,3.718,5.588c3.307,3.301,7.273,4.953,11.906,4.953
		c2.226,0,4.377-0.411,6.448-1.236c2.068-0.83,3.88-2.068,5.455-3.718l3.963-3.85l7.692,7.81l-3.845,3.845
		c-2.73,2.728-5.808,4.777-9.236,6.136c-3.431,1.365-6.925,2.052-10.477,2.052c-3.558,0-7.049-0.687-10.483-2.052
		c-3.428-1.36-6.506-3.409-9.234-6.136c-2.736-2.725-4.757-5.786-6.079-9.176c-1.324-3.387-1.983-6.878-1.983-10.475
		c0-3.596,0.659-7.091,1.983-10.48C257.026,38.601,259.048,35.542,261.784,32.817"/>
	<path style="&st0;" d="M352.184,60.468L360,68.284l-3.845,3.839c-2.645,2.653-5.662,4.677-9.052,6.078
		c-3.392,1.409-6.944,2.11-10.665,2.11s-7.273-0.701-10.665-2.11c-3.392-1.401-6.404-3.425-9.049-6.078
		c-2.733-2.725-4.755-5.805-6.081-9.236c-1.324-3.431-1.983-6.922-1.983-10.475c0-3.555,0.659-7.027,1.983-10.417
		c1.327-3.392,3.348-6.448,6.081-9.178c2.725-2.728,5.805-4.768,9.234-6.136c3.434-1.365,6.925-2.049,10.48-2.049
		c3.552,0,7.049,0.684,10.475,2.049c3.434,1.368,6.514,3.409,9.242,6.136L360,36.661l-30.881,30.878
		c3.147,1.569,6.467,2.088,9.986,1.547c3.514-0.535,6.589-2.126,9.239-4.768L352.184,60.468z M324.536,40.523
		c-3.307,3.31-4.962,7.275-4.962,11.903c0,2.565,0.579,5.008,1.737,7.32c0.993-0.99,2.501-2.499,4.526-4.526
		c2.024-2.027,4.173-4.176,6.448-6.451c2.275-2.27,4.462-4.44,6.572-6.509c2.104-2.066,3.743-3.679,4.901-4.837
		c-3.147-1.567-6.476-2.11-9.989-1.608C330.258,36.311,327.175,37.883,324.536,40.523"/>
	<rect x="120.557" y="1" style="&st0;" width="11.033" height="79.313"/>
	<path style="&st0;" d="M40.427,25.868c3.406,1.473,6.393,3.497,8.958,6.056c2.565,2.565,4.584,5.549,6.056,8.958
		c1.473,3.406,2.206,7.088,2.206,11.04c0,3.869-0.734,7.526-2.206,10.979c-1.473,3.447-3.492,6.473-6.056,9.079
		c-2.565,2.612-5.552,4.647-8.958,6.12c-3.409,1.475-7.091,2.212-11.037,2.212c-3.872,0-7.535-0.736-10.977-2.212
		c-3.45-1.467-6.478-3.508-9.085-6.112c-2.612-2.603-4.647-5.632-6.123-9.076C1.736,59.465,1,55.806,1,51.939V1h11.225v22.662h17.16
		C33.337,23.662,37.019,24.396,40.427,25.868 M29.39,69.085c2.355,0,4.562-0.438,6.625-1.324c2.063-0.885,3.867-2.104,5.425-3.663
		c1.555-1.55,2.78-3.378,3.663-5.491c0.883-2.102,1.324-4.33,1.324-6.685s-0.441-4.567-1.324-6.63
		c-0.883-2.057-2.107-3.864-3.663-5.422c-1.558-1.561-3.362-2.777-5.425-3.66c-2.063-0.885-4.269-1.329-6.625-1.329H12.225v17.041
		c0,2.355,0.441,4.584,1.327,6.685c0.883,2.113,2.102,3.941,3.66,5.491c1.553,1.558,3.384,2.777,5.488,3.663
		C24.801,68.647,27.032,69.085,29.39,69.085"/>
	<path style="&st0;" d="M73.685,115.846c2.728-2.725,5.805-4.771,9.236-6.131c3.434-1.371,6.928-2.052,10.483-2.052
		s7.047,0.681,10.477,2.052c3.431,1.36,6.511,3.406,9.239,6.131l3.839,3.847l-7.684,7.813l-3.966-3.845
		c-1.655-1.658-3.519-2.893-5.59-3.718c-2.06-0.827-4.17-1.244-6.316-1.244c-2.151,0-4.258,0.416-6.324,1.244
		c-2.068,0.825-3.93,2.06-5.579,3.718c-1.655,1.569-2.896,3.392-3.723,5.458c-0.822,2.066-1.236,4.173-1.236,6.324
		c0,2.148,0.414,4.253,1.236,6.324c0.827,2.06,2.068,3.922,3.723,5.585c3.304,3.296,7.275,4.951,11.903,4.951
		c2.228,0,4.377-0.408,6.451-1.238c2.063-0.825,3.883-2.066,5.455-3.712l3.966-3.847l7.684,7.802l-3.839,3.85
		c-2.728,2.73-5.808,4.774-9.239,6.139c-3.431,1.362-6.922,2.046-10.477,2.046s-7.049-0.684-10.483-2.046
		c-3.431-1.365-6.509-3.409-9.236-6.139c-2.725-2.733-4.752-5.786-6.078-9.178c-1.321-3.387-1.977-6.878-1.977-10.477
		c0-3.596,0.656-7.082,1.977-10.477C68.933,121.635,70.96,118.579,73.685,115.846"/>
	<path style="&st0;" d="M146.239,107.637v27.794c0,2.317,0.436,4.509,1.305,6.578c0.869,2.068,2.068,3.861,3.599,5.395
		c1.528,1.533,3.326,2.73,5.397,3.599c2.068,0.872,4.258,1.296,6.572,1.296c2.322,0,4.493-0.425,6.52-1.296
		c2.03-0.869,3.809-2.066,5.342-3.599c1.525-1.533,2.722-3.326,3.594-5.395c0.866-2.068,1.302-4.261,1.302-6.578l-0.039-27.814
		h11.079v27.811c0,3.803-0.728,7.4-2.173,10.792c-1.448,3.389-3.434,6.368-5.957,8.933c-2.518,2.562-5.477,4.57-8.869,6.015
		c-3.39,1.448-6.983,2.173-10.797,2.173c-3.883,0-7.502-0.725-10.852-2.173c-3.343-1.445-6.305-3.453-8.867-6.015
		c-2.568-2.565-4.57-5.543-6.018-8.933c-1.445-3.392-2.173-6.989-2.173-10.792v-27.792H146.239z"/>
	<path style="&st0;" d="M233.935,108.902c3.406,1.467,6.393,3.486,8.958,6.048c2.565,2.568,4.584,5.552,6.056,8.961
		c1.475,3.409,2.206,7.088,2.206,11.04c0,3.869-0.731,7.529-2.206,10.977c-1.473,3.45-3.492,6.476-6.056,9.082
		s-5.552,4.65-8.958,6.128c-3.406,1.464-7.088,2.204-11.037,2.204c-3.869,0-7.535-0.739-10.977-2.204
		c-3.45-1.475-6.478-3.514-9.087-6.12c-2.606-2.601-4.642-5.632-6.117-9.074c-1.473-3.453-2.209-7.107-2.209-10.977V84.031h11.222
		v22.659h17.163C226.848,106.69,230.529,107.429,233.935,108.902 M222.898,152.114c2.355,0,4.564-0.439,6.625-1.324
		c2.066-0.885,3.869-2.099,5.428-3.66c1.555-1.553,2.777-3.387,3.66-5.491c0.885-2.102,1.327-4.333,1.327-6.688
		c0-2.355-0.441-4.567-1.327-6.625c-0.883-2.066-2.104-3.869-3.66-5.428c-1.558-1.558-3.362-2.777-5.428-3.66
		c-2.06-0.885-4.269-1.327-6.625-1.327H205.73v17.039c0,2.355,0.447,4.586,1.329,6.688c0.885,2.104,2.104,3.938,3.66,5.491
		c1.555,1.561,3.387,2.774,5.488,3.66C218.309,151.675,220.54,152.114,222.898,152.114"/>
	<rect x="120.563" y="83.915" style="&st0;" width="11.033" height="79.313"/>
</g>
</svg>
