<?xml version="1.0" encoding="utf-8"?>
<!-- Generator: Adobe Illustrator 21.0.0, SVG Export Plug-In . SVG Version: 6.00 Build 0)  -->
<!DOCTYPE svg PUBLIC "-//W3C//DTD SVG 1.1//EN" "http://www.w3.org/Graphics/SVG/1.1/DTD/svg11.dtd" [
	<!ENTITY ns_extend "http://ns.adobe.com/Extensibility/1.0/">
	<!ENTITY ns_ai "http://ns.adobe.com/AdobeIllustrator/10.0/">
	<!ENTITY ns_graphs "http://ns.adobe.com/Graphs/1.0/">
	<!ENTITY ns_vars "http://ns.adobe.com/Variables/1.0/">
	<!ENTITY ns_imrep "http://ns.adobe.com/ImageReplacement/1.0/">
	<!ENTITY ns_sfw "http://ns.adobe.com/SaveForWeb/1.0/">
	<!ENTITY ns_custom "http://ns.adobe.com/GenericCustomNamespace/1.0/">
	<!ENTITY ns_adobe_xpath "http://ns.adobe.com/XPath/1.0/">
	<!ENTITY st0 "fill:#E753A7;">
]>
<svg version="1.1" id="Vrstva_1" xmlns:x="&ns_extend;" xmlns:i="&ns_ai;" xmlns:graph="&ns_graphs;"
	 xmlns="http://www.w3.org/2000/svg" xmlns:xlink="http://www.w3.org/1999/xlink" x="0px" y="0px" width="14px" height="11px"
	 viewBox="0 0 14 11" style="enable-background:new 0 0 11 11;" xml:space="preserve">
<path style="&st0;" d="M5.509,1c0.63,0,1.214,0.117,1.755,0.352c0.541,0.234,1.015,0.554,1.423,0.961
	c0.407,0.408,0.728,0.883,0.962,1.423C9.883,4.279,10,4.863,10,5.491v4.511H5.509c-0.614,0-1.195-0.117-1.742-0.352
	C3.219,9.416,2.738,9.093,2.323,8.678C1.909,8.264,1.584,7.782,1.35,7.235C1.116,6.687,1,6.106,1,5.491
	c0-0.628,0.116-1.212,0.35-1.754c0.234-0.54,0.559-1.015,0.973-1.423c0.414-0.407,0.896-0.727,1.444-0.961
	C4.314,1.117,4.894,1,5.509,1z"/>
</svg>
